<?xml version="1.0" encoding="UTF-8" standalone="no"?>
<svg
   width="24"
   height="24"
   viewBox="0 0 24 24"
   version="1.1"
   id="svg22095"
   sodipodi:docname="JUnit.svg"
   inkscape:version="1.2.1 (9c6d41e410, 2022-07-14)"
   xmlns:inkscape="http://www.inkscape.org/namespaces/inkscape"
   xmlns:sodipodi="http://sodipodi.sourceforge.net/DTD/sodipodi-0.dtd"
   xmlns="http://www.w3.org/2000/svg"
   xmlns:svg="http://www.w3.org/2000/svg">
  <defs
     id="defs22099" />
  <sodipodi:namedview
     id="namedview22097"
     pagecolor="#ffffff"
     bordercolor="#000000"
     borderopacity="0.25"
     inkscape:showpageshadow="2"
     inkscape:pageopacity="0.0"
     inkscape:pagecheckerboard="true"
     inkscape:deskcolor="#d1d1d1"
     showgrid="false"
     inkscape:zoom="18.495262"
     inkscape:cx="4.0280587"
     inkscape:cy="15.409352"
     inkscape:window-width="1920"
     inkscape:window-height="1017"
     inkscape:window-x="-8"
     inkscape:window-y="-8"
     inkscape:window-maximized="1"
     inkscape:current-layer="svg22095" />
  <path
     style="fill:#ffffff;fill-opacity:1;fill-rule:nonzero;stroke:none;stroke-width:0.192258"
     d="M 12.055029,0.00282531 C 9.103577,-0.05349209 6.2882893,0.72530721 3.8793734,2.9523489 -1.161606,7.6147293 -1.311657,15.597518 3.5572846,20.431936 c 0.8763902,0.870218 1.919418,1.675248 3.0646655,2.165517 0.2991376,-1.005804 0.2408916,-2.220099 0.1461937,-3.413756 -0.022758,-0.02353 -0.046288,-0.04687 -0.063646,-0.0729 -0.3199673,-0.476961 -0.082547,-1.722114 -0.082547,-2.288566 2.0127662,0.356805 3.6521402,1.463865 5.8068572,0.820844 2.108621,-0.629327 2.987518,-3.67027 1.128468,-5.109833 -1.122682,-0.869833 -2.788287,-0.751219 -4.112322,-0.591718 -0.795193,0.09605 -1.7880758,0.389593 -2.3369769,-0.456132 -0.3240175,-0.497791 0.010415,-1.7196071 0.064804,-2.2827801 0.013501,-0.141951 0.028352,-0.286601 0.042431,-0.42913 C 7.3561969,7.0245546 7.5901453,5.2567305 7.5901453,3.5068431 H 16.138807 V 0.53976861 c -1.372445,-0.3134098 -2.742191,-0.5110991 -4.083778,-0.5371362 z"
     id="path22091" />
  <path
     style="display:inline;fill:#ffffff;fill-opacity:1;fill-rule:nonzero;stroke:none;stroke-width:0.192576"
     d="M 16.06976,0.53436831 V 5.7572218 H 9.849203 L 9.525957,9.7740749 c 1.380353,-0.108199 2.660029,-0.351791 4.039418,-0.02758 0.94563,0.222762 1.833206,0.6692501 2.48992,1.3938531 1.832821,2.01971 1.472159,5.8111 -0.632027,7.514506 -0.592103,0.479469 -1.268682,0.794422 -1.983064,0.996933 -0.659607,0.210804 -1.3223,0.300102 -1.987307,0.306273 a 13.682025,13.682025 0 0 1 -0.715153,0.02006 c -1.035699,0 -2.071591,-0.134622 -3.0698731,-0.413894 C 7.4140572,19.493056 7.0213789,19.394117 6.7745084,19.20935 6.7222414,19.19816 6.6697813,19.18601 6.6175142,19.17463 l -0.080426,3.374604 C 12.948006,25.94872 21.114983,22.31143 23.414543,15.639756 25.358455,10.001658 22.347985,2.0142411 16.06976,0.53436831 Z"
     id="path22093" />
</svg>
