<?xml version="1.0" encoding="UTF-8" standalone="no"?>
<svg
   width="24"
   height="24"
   id="svg2"
   version="1.1"
   inkscape:version="1.2.1 (9c6d41e410, 2022-07-14)"
   sodipodi:docname="Kubernetes.svg"
   inkscape:export-filename="/home/thockin/src/kubernetes/new.png"
   inkscape:export-xdpi="460.95001"
   inkscape:export-ydpi="460.95001"
   xmlns:inkscape="http://www.inkscape.org/namespaces/inkscape"
   xmlns:sodipodi="http://sodipodi.sourceforge.net/DTD/sodipodi-0.dtd"
   xmlns="http://www.w3.org/2000/svg"
   xmlns:svg="http://www.w3.org/2000/svg"
   xmlns:rdf="http://www.w3.org/1999/02/22-rdf-syntax-ns#"
   xmlns:cc="http://creativecommons.org/ns#"
   xmlns:dc="http://purl.org/dc/elements/1.1/">
  <defs
     id="defs4">
    <inkscape:path-effect
       effect="powerclip"
       id="path-effect14555"
       is_visible="true"
       lpeversion="1"
       inverse="true"
       flatten="false"
       hide_clip="false"
       message="Use fill-rule evenodd on &lt;b&gt;fill and stroke&lt;/b&gt; dialog if no flatten result after convert clip to paths." />
    <clipPath
       clipPathUnits="userSpaceOnUse"
       id="clipPath14551">
      <path
         inkscape:connector-curvature="0"
         id="path14553"
         d="m 28.325382,187.80195 c -0.275803,3e-5 -0.499431,0.24845 -0.499398,0.55489 1e-6,0.005 9.63e-4,0.009 0.0011,0.0139 -4.07e-4,0.0416 -0.0024,0.0918 -0.0011,0.12805 0.0066,0.17674 0.04511,0.31202 0.06829,0.47485 0.04201,0.34853 0.07721,0.63744 0.05549,0.90596 -0.02113,0.10126 -0.09571,0.19387 -0.162198,0.25824 l -0.01174,0.21128 c -0.299701,0.0248 -0.601407,0.0703 -0.902758,0.13872 -1.296714,0.29443 -2.413162,0.96237 -3.26316,1.86421 -0.05515,-0.0376 -0.151647,-0.10685 -0.18034,-0.12805 -0.08916,0.012 -0.179278,0.0395 -0.296651,-0.0288 -0.223488,-0.15044 -0.427036,-0.3581 -0.673333,-0.60824 -0.112855,-0.11966 -0.19458,-0.2336 -0.328664,-0.34894 -0.03045,-0.0262 -0.07692,-0.0616 -0.110977,-0.0886 -0.104827,-0.0836 -0.228467,-0.12716 -0.347871,-0.13125 -0.153521,-0.005 -0.30131,0.0548 -0.398025,0.17607 -0.171937,0.21565 -0.116889,0.54526 0.122715,0.73629 0.0024,0.002 0.005,0.003 0.0075,0.005 0.03293,0.0267 0.07324,0.0609 0.103508,0.0832 0.142285,0.10505 0.27226,0.15883 0.414031,0.24223 0.298682,0.18445 0.546294,0.3374 0.742694,0.5218 0.07669,0.0818 0.0901,0.22581 0.100306,0.28812 l 0.160064,0.14299 c -0.856862,1.28951 -1.253425,2.88232 -1.019069,4.50525 l -0.20915,0.0608 c -0.05512,0.0712 -0.133016,0.18318 -0.214486,0.21661 -0.25696,0.0809 -0.546154,0.11066 -0.895289,0.14726 -0.163915,0.0136 -0.305347,0.005 -0.479123,0.0384 -0.03825,0.007 -0.09154,0.0211 -0.133386,0.0309 -0.0015,3.1e-4 -0.0028,7.4e-4 -0.0043,0.001 -0.0023,5.3e-4 -0.0053,0.002 -0.0075,0.002 -0.294351,0.0711 -0.483443,0.34168 -0.422568,0.60824 0.06089,0.26663 0.348406,0.42878 0.644523,0.36495 0.0021,-4.9e-4 0.0052,-5.7e-4 0.0075,-0.001 0.0033,-7.6e-4 0.0063,-0.002 0.0096,-0.003 0.04128,-0.009 0.09301,-0.0191 0.129118,-0.0288 0.170848,-0.0457 0.294583,-0.11295 0.448178,-0.1718 0.330437,-0.11851 0.604117,-0.21752 0.870745,-0.2561 0.111359,-0.009 0.228685,0.0687 0.287047,0.10137 l 0.217686,-0.0373 c 0.500941,1.55309 1.550751,2.8084 2.880075,3.59609 l -0.0907,0.21768 c 0.03269,0.0845 0.06875,0.1989 0.0444,0.28237 -0.09693,0.25137 -0.262964,0.51668 -0.452027,0.81247 -0.09154,0.13665 -0.185231,0.2427 -0.267839,0.39909 -0.01977,0.0374 -0.04494,0.0949 -0.06403,0.13445 -0.128352,0.27462 -0.0342,0.59092 0.212351,0.70962 0.248103,0.11944 0.556064,-0.007 0.68934,-0.28171 2.05e-4,-3.9e-4 8.78e-4,-6.8e-4 0.0011,-0.001 1.37e-4,-3.1e-4 -1.36e-4,-7.7e-4 0,-0.001 0.01898,-0.039 0.04588,-0.0903 0.06189,-0.12698 0.07076,-0.1621 0.0943,-0.30101 0.144057,-0.45778 0.132135,-0.33191 0.204733,-0.68017 0.38663,-0.89718 0.04981,-0.0594 0.131015,-0.0823 0.215208,-0.10482 l 0.113112,-0.20488 c 1.158884,0.44483 2.45607,0.56419 3.751887,0.26997 0.295608,-0.0671 0.58099,-0.15398 0.856873,-0.25823 0.03179,0.0564 0.09087,0.16478 0.106709,0.19208 0.08556,0.0278 0.178945,0.0422 0.255034,0.15472 0.136089,0.23251 0.229157,0.50757 0.342536,0.8398 0.04977,0.15677 0.07436,0.29569 0.145124,0.45778 0.01613,0.0369 0.04289,0.0889 0.06189,0.12805 0.132995,0.27608 0.441932,0.40248 0.690407,0.28278 0.246523,-0.11876 0.340776,-0.43502 0.21235,-0.70961 -0.01908,-0.0395 -0.04532,-0.097 -0.06509,-0.13445 -0.08262,-0.15639 -0.17629,-0.26138 -0.26784,-0.39803 -0.189078,-0.29578 -0.345896,-0.54149 -0.442842,-0.79285 -0.04054,-0.12964 0.0068,-0.21026 0.03841,-0.29451 -0.01891,-0.0217 -0.05937,-0.14411 -0.08323,-0.20168 1.381494,-0.81571 2.400476,-2.11784 2.879008,-3.62171 0.06462,0.0102 0.176934,0.03 0.213418,0.0374 0.07511,-0.0495 0.144166,-0.11417 0.279578,-0.1035 0.266629,0.0386 0.540302,0.1376 0.870745,0.2561 0.153598,0.0588 0.277327,0.12713 0.448178,0.17287 0.03611,0.01 0.08784,0.0187 0.129117,0.0277 0.0033,8.1e-4 0.0063,0.002 0.0096,0.003 0.0022,5e-4 0.0053,5.8e-4 0.0075,0.001 0.296134,0.0637 0.583701,-0.0983 0.644522,-0.36494 0.06081,-0.26658 -0.128198,-0.5372 -0.422568,-0.60824 -0.04282,-0.01 -0.103541,-0.0263 -0.145124,-0.0341 -0.173777,-0.0329 -0.315207,-0.0248 -0.479123,-0.0384 -0.349137,-0.0366 -0.638324,-0.0663 -0.895288,-0.14726 -0.104772,-0.0406 -0.179306,-0.16531 -0.215554,-0.21662 l -0.20168,-0.0587 c 0.104567,-0.7565 0.07637,-1.54383 -0.104575,-2.33159 -0.182631,-0.7951 -0.505386,-1.5223 -0.935837,-2.16299 0.05173,-0.047 0.149433,-0.13355 0.177136,-0.159 0.0081,-0.0896 0.0011,-0.18356 0.0939,-0.28278 0.196391,-0.18441 0.444022,-0.33733 0.742695,-0.5218 0.141766,-0.0834 0.272818,-0.13717 0.415098,-0.24223 0.03218,-0.0238 0.07611,-0.0614 0.10991,-0.0886 0.239553,-0.1911 0.294707,-0.52069 0.122715,-0.73629 -0.171992,-0.21561 -0.505275,-0.23592 -0.744828,-0.0448 -0.0341,0.027 -0.08037,0.0622 -0.110978,0.0886 -0.134077,0.11534 -0.216882,0.22927 -0.32973,0.34893 -0.246284,0.25016 -0.449854,0.45886 -0.673334,0.60931 -0.09684,0.0564 -0.238685,0.0369 -0.303055,0.0331 l -0.189942,0.13552 c -1.083098,-1.13574 -2.55776,-1.86187 -4.145637,-2.00293 -0.0044,-0.0665 -0.01026,-0.18682 -0.01174,-0.22302 -0.065,-0.0622 -0.143533,-0.11531 -0.163264,-0.2497 -0.02172,-0.26852 0.01455,-0.55743 0.05656,-0.90596 0.02319,-0.16283 0.06172,-0.29811 0.06829,-0.47485 0.0015,-0.0402 -9.05e-4,-0.0985 -0.0011,-0.14192 -3.3e-5,-0.30644 -0.223595,-0.55492 -0.499398,-0.55489 z m -0.625314,3.87354 -0.148326,2.6197 -0.01067,0.005 c -0.0099,0.23436 -0.202831,0.4215 -0.439641,0.4215 -0.097,0 -0.186542,-0.0312 -0.259302,-0.0843 l -0.0043,0.002 -2.148051,-1.52274 c 0.660183,-0.64917 1.50461,-1.12891 2.477782,-1.34986 0.177768,-0.0404 0.355457,-0.0703 0.532478,-0.0918 z m 1.251696,0 c 1.136185,0.13974 2.186936,0.65421 2.992119,1.4427 l -2.134179,1.51313 -0.0075,-0.003 c -0.189428,0.13836 -0.456319,0.10403 -0.603972,-0.0811 -0.06048,-0.0758 -0.09222,-0.16502 -0.09604,-0.25504 l -0.0021,-0.001 z m -5.040932,2.42015 1.961311,1.7543 -0.0021,0.0107 c 0.17703,0.1539 0.203136,0.42096 0.05549,0.60611 -0.06048,0.0758 -0.141439,0.12671 -0.228358,0.15046 l -0.0021,0.009 -2.514063,0.72563 c -0.127958,-1.17005 0.147806,-2.30743 0.729889,-3.2557 z m 8.815228,0.001 c 0.291413,0.47234 0.512085,0.99989 0.643455,1.57182 0.129794,0.56508 0.162368,1.12914 0.108843,1.67427 l -2.526868,-0.72776 -0.0021,-0.0107 c -0.226275,-0.0618 -0.365335,-0.29201 -0.312658,-0.52287 0.02158,-0.0946 0.07179,-0.17458 0.139789,-0.2337 l -0.0011,-0.005 1.95064,-1.74576 z m -4.802971,1.88875 h 0.803519 l 0.499398,0.62425 -0.179271,0.77897 -0.721353,0.34681 -0.723487,-0.34788 -0.179271,-0.77897 z m 2.575955,2.13631 c 0.03415,-0.002 0.06814,0.001 0.101373,0.007 l 0.0043,-0.005 2.600497,0.43964 c -0.380584,1.06924 -1.108845,1.99555 -2.081892,2.61543 l -1.009467,-2.4383 0.0032,-0.004 c -0.09273,-0.21547 6.8e-5,-0.46814 0.213418,-0.5709 0.05462,-0.0263 0.111691,-0.0409 0.1686,-0.0437 z m -4.367598,0.0107 c 0.198453,0.003 0.376456,0.14053 0.422567,0.34254 0.02159,0.0946 0.01108,0.18828 -0.02454,0.27104 l 0.0075,0.01 -0.998796,2.41376 c -0.93382,-0.59923 -1.677611,-1.49645 -2.075489,-2.59729 l 2.578088,-0.43751 0.0043,0.005 c 0.02884,-0.005 0.05808,-0.008 0.08643,-0.007 z m 2.17793,1.05749 c 0.06913,-0.003 0.139273,0.0116 0.205948,0.0437 0.0874,0.0421 0.154915,0.10836 0.197412,0.18781 h 0.0096 l 1.270903,2.29638 c -0.164939,0.0553 -0.334505,0.10254 -0.507934,0.14192 -0.971975,0.22069 -1.940861,0.15382 -2.818184,-0.14513 l 1.267702,-2.2921 h 0.0021 c 0.07607,-0.14221 0.220331,-0.22704 0.372414,-0.23263 z"
         style="color:#000000;font-style:normal;font-variant:normal;font-weight:normal;font-stretch:normal;font-size:medium;line-height:normal;font-family:Sans;-inkscape-font-specification:Sans;text-indent:0;text-align:start;text-decoration:none;text-decoration-line:none;letter-spacing:normal;word-spacing:normal;text-transform:none;writing-mode:lr-tb;direction:ltr;baseline-shift:baseline;text-anchor:start;display:none;overflow:visible;visibility:visible;fill:#ffffff;fill-opacity:1;stroke:#ffffff;stroke-width:0.00853672;stroke-miterlimit:4;stroke-dasharray:none;stroke-opacity:1;marker:none;enable-background:accumulate"
         sodipodi:nodetypes="ccccccccsccccscssccsccccccccscccsccccccccccccccscccscsccsccccscscsccccccccscccscsccccsccccscscscccccccccccccccscccsccccccccccccscccccscccccccccccccccccccccccscccscccccccccscccscccc"
         inkscape:export-filename="./path3059.png"
         inkscape:export-xdpi="250.55"
         inkscape:export-ydpi="250.55" />
      <path
         id="lpe_path-effect14555"
         style="color:#000000;font-style:normal;font-variant:normal;font-weight:normal;font-stretch:normal;font-size:medium;line-height:normal;font-family:Sans;-inkscape-font-specification:Sans;text-indent:0;text-align:start;text-decoration:none;text-decoration-line:none;letter-spacing:normal;word-spacing:normal;text-transform:none;writing-mode:lr-tb;direction:ltr;baseline-shift:baseline;text-anchor:start;display:inline;overflow:visible;visibility:visible;fill:#ffffff;fill-opacity:1;stroke:#ffffff;stroke-width:0.00853672;stroke-miterlimit:4;stroke-dasharray:none;stroke-opacity:1;marker:none;enable-background:accumulate"
         class="powerclip"
         d="m 11.325907,179.75252 h 34 v 33.28688 h -34 z m 16.999475,8.04943 c -0.275803,3e-5 -0.499431,0.24845 -0.499398,0.55489 1e-6,0.005 9.63e-4,0.009 0.0011,0.0139 -4.07e-4,0.0416 -0.0024,0.0918 -0.0011,0.12805 0.0066,0.17674 0.04511,0.31202 0.06829,0.47485 0.04201,0.34853 0.07721,0.63744 0.05549,0.90596 -0.02113,0.10126 -0.09571,0.19387 -0.162198,0.25824 l -0.01174,0.21128 c -0.299701,0.0248 -0.601407,0.0703 -0.902758,0.13872 -1.296714,0.29443 -2.413162,0.96237 -3.26316,1.86421 -0.05515,-0.0376 -0.151647,-0.10685 -0.18034,-0.12805 -0.08916,0.012 -0.179278,0.0395 -0.296651,-0.0288 -0.223488,-0.15044 -0.427036,-0.3581 -0.673333,-0.60824 -0.112855,-0.11966 -0.19458,-0.2336 -0.328664,-0.34894 -0.03045,-0.0262 -0.07692,-0.0616 -0.110977,-0.0886 -0.104827,-0.0836 -0.228467,-0.12716 -0.347871,-0.13125 -0.153521,-0.005 -0.30131,0.0548 -0.398025,0.17607 -0.171937,0.21565 -0.116889,0.54526 0.122715,0.73629 0.0024,0.002 0.005,0.003 0.0075,0.005 0.03293,0.0267 0.07324,0.0609 0.103508,0.0832 0.142285,0.10505 0.27226,0.15883 0.414031,0.24223 0.298682,0.18445 0.546294,0.3374 0.742694,0.5218 0.07669,0.0818 0.0901,0.22581 0.100306,0.28812 l 0.160064,0.14299 c -0.856862,1.28951 -1.253425,2.88232 -1.019069,4.50525 l -0.20915,0.0608 c -0.05512,0.0712 -0.133016,0.18318 -0.214486,0.21661 -0.25696,0.0809 -0.546154,0.11066 -0.895289,0.14726 -0.163915,0.0136 -0.305347,0.005 -0.479123,0.0384 -0.03825,0.007 -0.09154,0.0211 -0.133386,0.0309 -0.0015,3.1e-4 -0.0028,7.4e-4 -0.0043,0.001 -0.0023,5.3e-4 -0.0053,0.002 -0.0075,0.002 -0.294351,0.0711 -0.483443,0.34168 -0.422568,0.60824 0.06089,0.26663 0.348406,0.42878 0.644523,0.36495 0.0021,-4.9e-4 0.0052,-5.7e-4 0.0075,-0.001 0.0033,-7.6e-4 0.0063,-0.002 0.0096,-0.003 0.04128,-0.009 0.09301,-0.0191 0.129118,-0.0288 0.170848,-0.0457 0.294583,-0.11295 0.448178,-0.1718 0.330437,-0.11851 0.604117,-0.21752 0.870745,-0.2561 0.111359,-0.009 0.228685,0.0687 0.287047,0.10137 l 0.217686,-0.0373 c 0.500941,1.55309 1.550751,2.8084 2.880075,3.59609 l -0.0907,0.21768 c 0.03269,0.0845 0.06875,0.1989 0.0444,0.28237 -0.09693,0.25137 -0.262964,0.51668 -0.452027,0.81247 -0.09154,0.13665 -0.185231,0.2427 -0.267839,0.39909 -0.01977,0.0374 -0.04494,0.0949 -0.06403,0.13445 -0.128352,0.27462 -0.0342,0.59092 0.212351,0.70962 0.248103,0.11944 0.556064,-0.007 0.68934,-0.28171 2.05e-4,-3.9e-4 8.78e-4,-6.8e-4 0.0011,-0.001 1.37e-4,-3.1e-4 -1.36e-4,-7.7e-4 0,-0.001 0.01898,-0.039 0.04588,-0.0903 0.06189,-0.12698 0.07076,-0.1621 0.0943,-0.30101 0.144057,-0.45778 0.132135,-0.33191 0.204733,-0.68017 0.38663,-0.89718 0.04981,-0.0594 0.131015,-0.0823 0.215208,-0.10482 l 0.113112,-0.20488 c 1.158884,0.44483 2.45607,0.56419 3.751887,0.26997 0.295608,-0.0671 0.58099,-0.15398 0.856873,-0.25823 0.03179,0.0564 0.09087,0.16478 0.106709,0.19208 0.08556,0.0278 0.178945,0.0422 0.255034,0.15472 0.136089,0.23251 0.229157,0.50757 0.342536,0.8398 0.04977,0.15677 0.07436,0.29569 0.145124,0.45778 0.01613,0.0369 0.04289,0.0889 0.06189,0.12805 0.132995,0.27608 0.441932,0.40248 0.690407,0.28278 0.246523,-0.11876 0.340776,-0.43502 0.21235,-0.70961 -0.01908,-0.0395 -0.04532,-0.097 -0.06509,-0.13445 -0.08262,-0.15639 -0.17629,-0.26138 -0.26784,-0.39803 -0.189078,-0.29578 -0.345896,-0.54149 -0.442842,-0.79285 -0.04054,-0.12964 0.0068,-0.21026 0.03841,-0.29451 -0.01891,-0.0217 -0.05937,-0.14411 -0.08323,-0.20168 1.381494,-0.81571 2.400476,-2.11784 2.879008,-3.62171 0.06462,0.0102 0.176934,0.03 0.213418,0.0374 0.07511,-0.0495 0.144166,-0.11417 0.279578,-0.1035 0.266629,0.0386 0.540302,0.1376 0.870745,0.2561 0.153598,0.0588 0.277327,0.12713 0.448178,0.17287 0.03611,0.01 0.08784,0.0187 0.129117,0.0277 0.0033,8.1e-4 0.0063,0.002 0.0096,0.003 0.0022,5e-4 0.0053,5.8e-4 0.0075,0.001 0.296134,0.0637 0.583701,-0.0983 0.644522,-0.36494 0.06081,-0.26658 -0.128198,-0.5372 -0.422568,-0.60824 -0.04282,-0.01 -0.103541,-0.0263 -0.145124,-0.0341 -0.173777,-0.0329 -0.315207,-0.0248 -0.479123,-0.0384 -0.349137,-0.0366 -0.638324,-0.0663 -0.895288,-0.14726 -0.104772,-0.0406 -0.179306,-0.16531 -0.215554,-0.21662 l -0.20168,-0.0587 c 0.104567,-0.7565 0.07637,-1.54383 -0.104575,-2.33159 -0.182631,-0.7951 -0.505386,-1.5223 -0.935837,-2.16299 0.05173,-0.047 0.149433,-0.13355 0.177136,-0.159 0.0081,-0.0896 0.0011,-0.18356 0.0939,-0.28278 0.196391,-0.18441 0.444022,-0.33733 0.742695,-0.5218 0.141766,-0.0834 0.272818,-0.13717 0.415098,-0.24223 0.03218,-0.0238 0.07611,-0.0614 0.10991,-0.0886 0.239553,-0.1911 0.294707,-0.52069 0.122715,-0.73629 -0.171992,-0.21561 -0.505275,-0.23592 -0.744828,-0.0448 -0.0341,0.027 -0.08037,0.0622 -0.110978,0.0886 -0.134077,0.11534 -0.216882,0.22927 -0.32973,0.34893 -0.246284,0.25016 -0.449854,0.45886 -0.673334,0.60931 -0.09684,0.0564 -0.238685,0.0369 -0.303055,0.0331 l -0.189942,0.13552 c -1.083098,-1.13574 -2.55776,-1.86187 -4.145637,-2.00293 -0.0044,-0.0665 -0.01026,-0.18682 -0.01174,-0.22302 -0.065,-0.0622 -0.143533,-0.11531 -0.163264,-0.2497 -0.02172,-0.26852 0.01455,-0.55743 0.05656,-0.90596 0.02319,-0.16283 0.06172,-0.29811 0.06829,-0.47485 0.0015,-0.0402 -9.05e-4,-0.0985 -0.0011,-0.14192 -3.3e-5,-0.30644 -0.223595,-0.55492 -0.499398,-0.55489 z m -0.625314,3.87354 -3e-5,-5e-4 c -0.177021,0.0215 -0.35471,0.0514 -0.532478,0.0918 -0.973172,0.22095 -1.817599,0.70069 -2.477782,1.34986 l 2.148051,1.52274 0.0043,-0.002 c 0.07276,0.0531 0.162302,0.0843 0.259302,0.0843 0.23681,0 0.429741,-0.18714 0.439641,-0.4215 l 0.01067,-0.005 z m 1.251696,0 0.148328,2.61569 0.0021,0.001 c 0.0038,0.09 0.03556,0.17924 0.09604,0.25504 0.147653,0.18513 0.414544,0.21946 0.603972,0.0811 l 0.0075,0.003 2.134179,-1.51313 c -0.805183,-0.78849 -1.855934,-1.30296 -2.992119,-1.4427 z m -5.040932,2.42015 6.9e-5,5e-4 c -0.582083,0.94827 -0.857847,2.08565 -0.729889,3.2557 l 2.514063,-0.72563 0.0021,-0.009 c 0.08692,-0.0238 0.167878,-0.0747 0.228358,-0.15046 0.147646,-0.18515 0.12154,-0.45221 -0.05549,-0.60611 l 0.0021,-0.0107 z m 8.815228,0.001 1e-6,3e-4 -1.95064,1.74576 0.0011,0.005 c -0.068,0.0591 -0.118209,0.1391 -0.139789,0.2337 -0.05268,0.23086 0.08638,0.46107 0.312658,0.52287 l 0.0021,0.0107 2.526868,0.72776 c 0.05353,-0.54513 0.02095,-1.10919 -0.108843,-1.67427 -0.13137,-0.57193 -0.352042,-1.09948 -0.643455,-1.57182 z m -4.802971,1.88875 -0.500465,0.62318 0.179271,0.77897 0.723487,0.34788 0.721353,-0.34681 0.179271,-0.77897 -0.499398,-0.62425 z m 2.575955,2.13631 2.9e-5,1.7e-4 c -0.05691,0.003 -0.11398,0.0174 -0.1686,0.0437 -0.21335,0.10276 -0.306148,0.35543 -0.213418,0.5709 l -0.0032,0.004 1.009467,2.4383 c 0.973047,-0.61988 1.701308,-1.54619 2.081892,-2.61543 l -2.600497,-0.43964 -0.0043,0.005 c -0.03323,-0.006 -0.06722,-0.009 -0.101373,-0.007 z m -4.367598,0.0107 6e-5,5.4e-4 c -0.02835,-0.001 -0.05759,0.002 -0.08643,0.007 l -0.0043,-0.005 -2.578088,0.43751 c 0.397878,1.10084 1.141669,1.99806 2.075489,2.59729 l 0.998796,-2.41376 -0.0075,-0.01 c 0.03562,-0.0828 0.04613,-0.17644 0.02454,-0.27104 -0.04611,-0.20201 -0.224114,-0.33954 -0.422567,-0.34254 z m 2.17793,1.05749 -3.9e-5,-5e-5 c -0.152083,0.006 -0.296344,0.0904 -0.372414,0.23263 h -0.0021 l -1.267702,2.2921 c 0.877323,0.29895 1.846209,0.36582 2.818184,0.14513 0.173429,-0.0394 0.342995,-0.0866 0.507934,-0.14192 l -1.270903,-2.29638 h -0.0096 c -0.0425,-0.0795 -0.110012,-0.14571 -0.197412,-0.18781 -0.06668,-0.0321 -0.136818,-0.0467 -0.205948,-0.0437 z" />
    </clipPath>
  </defs>
  <sodipodi:namedview
     id="base"
     pagecolor="#ffffff"
     bordercolor="#666666"
     borderopacity="1.0"
     inkscape:pageopacity="0.0"
     inkscape:pageshadow="2"
     inkscape:zoom="16.190509"
     inkscape:cx="22.389661"
     inkscape:cy="17.541141"
     inkscape:document-units="px"
     inkscape:current-layer="g3052"
     showgrid="false"
     inkscape:window-width="1920"
     inkscape:window-height="1017"
     inkscape:window-x="-8"
     inkscape:window-y="-8"
     inkscape:window-maximized="1"
     inkscape:snap-global="false"
     fit-margin-top="10"
     fit-margin-left="10"
     fit-margin-right="10"
     fit-margin-bottom="10"
     inkscape:showpageshadow="2"
     inkscape:pagecheckerboard="true"
     inkscape:deskcolor="#d1d1d1" />
  <metadata
     id="metadata7">
    <rdf:RDF>
      <cc:Work
         rdf:about="">
        <dc:format>image/svg+xml</dc:format>
        <dc:type
           rdf:resource="http://purl.org/dc/dcmitype/StillImage" />
      </cc:Work>
    </rdf:RDF>
  </metadata>
  <g
     inkscape:label="Layer 1"
     inkscape:groupmode="layer"
     id="layer1"
     transform="translate(-6.3260942,-174.7524)">
    <g
       id="g3052">
      <path
         style="fill:#ffffff;fill-opacity:1;stroke:#ffffff;stroke-width:0;stroke-miterlimit:4;stroke-dasharray:none;stroke-opacity:1"
         d="m 28.242707,184.75444 a 1.5954995,1.5824426 0 0 0 -0.611442,0.15473 l -8.343574,3.98665 a 1.5954995,1.5824426 0 0 0 -0.863276,1.07349 l -2.058416,8.95501 a 1.5954995,1.5824426 0 0 0 0.21662,1.21328 1.5954995,1.5824426 0 0 0 0.0907,0.12592 l 5.775089,7.18045 a 1.5954995,1.5824426 0 0 0 1.247428,0.59543 l 9.261271,-0.002 a 1.5954995,1.5824426 0 0 0 1.247428,-0.59437 l 5.772955,-7.18151 a 1.5954995,1.5824426 0 0 0 0.308389,-1.3392 l -2.061617,-8.95502 a 1.5954995,1.5824426 0 0 0 -0.863276,-1.07349 l -8.344641,-3.98451 a 1.5954995,1.5824426 0 0 0 -0.77364,-0.15473 z"
         id="path3055"
         inkscape:connector-curvature="0"
         inkscape:export-filename="new.png"
         inkscape:export-xdpi="250.55"
         inkscape:export-ydpi="250.55"
         clip-path="url(#clipPath14551)"
         inkscape:path-effect="#path-effect14555"
         inkscape:original-d="m 28.242707,184.75444 a 1.5954995,1.5824426 0 0 0 -0.611442,0.15473 l -8.343574,3.98665 a 1.5954995,1.5824426 0 0 0 -0.863276,1.07349 l -2.058416,8.95501 a 1.5954995,1.5824426 0 0 0 0.21662,1.21328 1.5954995,1.5824426 0 0 0 0.0907,0.12592 l 5.775089,7.18045 a 1.5954995,1.5824426 0 0 0 1.247428,0.59543 l 9.261271,-0.002 a 1.5954995,1.5824426 0 0 0 1.247428,-0.59437 l 5.772955,-7.18151 a 1.5954995,1.5824426 0 0 0 0.308389,-1.3392 l -2.061617,-8.95502 a 1.5954995,1.5824426 0 0 0 -0.863276,-1.07349 l -8.344641,-3.98451 a 1.5954995,1.5824426 0 0 0 -0.77364,-0.15473 z"
         transform="translate(-9.9998129,-9.6435588)" />
    </g>
  </g>
</svg>
